%YAML 1.1
%TAG !u! tag:unity3d.com,2011:
--- !u!21 &2100000
Material:
  serializedVersion: 6
  m_ObjectHideFlags: 0
  m_CorrespondingSourceObject: {fileID: 0}
  m_PrefabInstance: {fileID: 0}
  m_PrefabAsset: {fileID: 0}
  m_Name: satara_night_8k
  m_Shader: {fileID: 4800000, guid: 5e444cd13928b274babcaedb447ba3ef, type: 3}
  m_ShaderKeywords: _FOGBOTTOM_ON
  m_LightmapFlags: 4
  m_EnableInstancingVariants: 0
  m_DoubleSidedGI: 1
  m_CustomRenderQueue: -1
  stringTagMap: {}
  disabledShaderPasses: []
  m_SavedProperties:
    serializedVersion: 3
    m_TexEnvs:
    - <noninit>:
        m_Texture: {fileID: 0}
        m_Scale: {x: 1, y: 1}
        m_Offset: {x: 0, y: 0}
    - _Tex:
        m_Texture: {fileID: 8900000, guid: 6939f8161e0932c40871408aebe0e285, type: 3}
        m_Scale: {x: 1, y: 1}
        m_Offset: {x: 0, y: 0}
    m_Floats:
    - <noninit>: 0
    - _Exposure: 0.8
    - _FogBottom: 0
    - _FogEnd: 0.343
    - _FogIntens: 1
    - _FogStart: 0.066
    - _MieIntens: 0.342
    - _MieSize: 0.237
    - _Rotation: 0
    - _SunDir: 48
    m_Colors:
    - <noninit>: {r: 0, g: 2.0182498, b: 1e-45, a: 1.2904559e-15}
    - _FogCol: {r: 0.184, g: 0.16727275, b: 0.16727275, a: 0.5}
    - _MieTint: {r: 0.5058824, g: 0.45490196, b: 0.38039216, a: 0.5019608}
    - _Tint: {r: 0.5019608, g: 0.5019608, b: 0.5019608, a: 0.5019608}
  m_BuildTextureStacks: []
